{
 "strides" : "32,16",
 "anchors" : "23,27 37,58 81,82 81,82 135,169 344,319",
 "mask" : "3,4,5 0,1,2",
 "num" : "61",
 "image_size":"416",
 "iou_threshold" :0.45,
 "ignore_threshold": 0.7,
 "score_threshold":0.6,
 "max_outputs":100, 
 "batch_size":4
 }